(module 47053-1000 (layer F.Cu) (tedit 5DE550ED)
  (descr 47053-1000)
  (tags Connector)
  (fp_text reference J** (at 4.817 -6.985) (layer F.SilkS)
    (effects (font (size 1.27 1.27) (thickness 0.254)))
  )
  (fp_text value 47053-1000 (at 4.817 1.905) (layer F.SilkS) hide
    (effects (font (size 1.27 1.27) (thickness 0.254)))
  )
  (fp_circle (center -1.012 -2.645) (end -1.012 -2.47) (layer F.SilkS) (width 0.6))
  (fp_line (start 0 0) (end 2.897 0) (layer F.SilkS) (width 0.254))
  (fp_line (start 10.576 0) (end 5.288 0) (layer F.SilkS) (width 0.254))
  (fp_line (start 10.576 -5.84) (end 10.576 0) (layer F.SilkS) (width 0.254))
  (fp_line (start 0 -5.84) (end 10.576 -5.84) (layer F.SilkS) (width 0.254))
  (fp_line (start 0 0) (end 0 -5.84) (layer F.SilkS) (width 0.254))
  (fp_line (start 0 0) (end 0 -5.84) (layer F.Fab) (width 0.254))
  (fp_line (start 10.576 0) (end 0 0) (layer F.Fab) (width 0.254))
  (fp_line (start 10.576 -5.84) (end 10.576 0) (layer F.Fab) (width 0.254))
  (fp_line (start 0 -5.84) (end 10.576 -5.84) (layer F.Fab) (width 0.254))
  (pad 4 thru_hole circle (at 9.19 -2.54) (size 1.77 1.77) (drill 1.17) (layers *.Cu *.Mask))
  (pad 3 thru_hole circle (at 6.65 -2.54) (size 1.77 1.77) (drill 1.17) (layers *.Cu *.Mask))
  (pad 2 thru_hole circle (at 4.11 -2.54) (size 1.77 1.77) (drill 1.17) (layers *.Cu *.Mask))
  (pad 1 thru_hole circle (at 1.57 -2.54) (size 1.77 1.77) (drill 1.17) (layers *.Cu *.Mask))
)
