(module CON_1x5 (layer F.Cu) (tedit 5CFF8FA8)
  (descr TE-282834-5)
  (fp_text reference J** (at -5.334 -4.064 180) (layer F.SilkS)
    (effects (font (size 1 1) (thickness 0.15)))
  )
  (fp_text value CON_1x5 (at 0 4.445) (layer Cmts.User)
    (effects (font (size 1 1) (thickness 0.15)))
  )
  (fp_text user TE-282834-5 (at 7.62 0 90) (layer F.Fab)
    (effects (font (size 1 1) (thickness 0.15)))
  )
  (fp_line (start -6.58 -3.25) (end 6.58 -3.25) (layer F.SilkS) (width 0.12))
  (fp_line (start -6.58 -3.25) (end -6.58 3.25) (layer F.SilkS) (width 0.12))
  (fp_line (start 6.58 -3.25) (end 6.58 3.25) (layer F.SilkS) (width 0.12))
  (fp_line (start -6.58 3.25) (end 6.58 3.25) (layer F.SilkS) (width 0.12))
  (pad 3 thru_hole circle (at 0 0) (size 1.524 1.524) (drill 0.762) (layers *.Cu *.Mask))
  (pad 2 thru_hole circle (at -2.54 0) (size 1.524 1.524) (drill 0.762) (layers *.Cu *.Mask))
  (pad 1 thru_hole circle (at -5.08 0) (size 1.524 1.524) (drill 0.762) (layers *.Cu *.Mask))
  (pad 4 thru_hole circle (at 2.54 0) (size 1.524 1.524) (drill 0.762) (layers *.Cu *.Mask))
  (pad 5 thru_hole circle (at 5.08 0) (size 1.524 1.524) (drill 0.762) (layers *.Cu *.Mask))
)
